{
   "id": 140,
   "name": "Web Design",
   "podcasts": [
     {
       "id": "49b3e8357a644abfa6d45b95b57a5637",
       "title": "Alexa Stop Podcast",
       "publisher": "Robert Belgrave & Jim Bowes",
       "image": "https://cdn-images-1.listennotes.com/podcasts/alexa-stop-podcast-robert-belgrave-jim-bowes-5f2IEtTmaYv-5jn9XD-Irgu.300x300.jpg",
       "thumbnail": "https://cdn-images-1.listennotes.com/podcasts/alexa-stop-podcast-robert-belgrave-jim-bowes-5f2IEtTmaYv-5jn9XD-Irgu.300x300.jpg",
       "listennotes_url": "https://www.listennotes.com/c/49b3e8357a644abfa6d45b95b57a5637/",
       "total_episodes": 26,
       "description": "Two technology CEOs \u2014 Jim Bowes and Robert Belgrave \u2014 discuss how technology is changing our lives, joined every month by a special guest from the industry. Supported by D/SRUPTION Magazine.",
       "itunes_id": 1223829037,
       "rss": "https://anchor.fm:443/s/116d284/podcast/rss",
       "language": "English",
       "country": "United Kingdom",
       "website": "https://anchor.fm/alexa-stop-podcast?utm_source=listennotes.com&utm_campaign=Listen+Notes&utm_medium=website",
       "is_claimed": false,
       "type": "episodic",
       "genre_ids": [
         140,
         67,
         127
       ]
     },
     {
       "id": "33bd629683d6413fae3dcc6d434c63a4",
       "title": "This Week in Tech (MP3)",
       "publisher": "TWiT",
       "image": "https://cdn-images-1.listennotes.com/podcasts/this-week-in-tech-mp3-twit-FhH4pxNJ7MD-rOsjyMdh_cW.300x300.jpg",
       "thumbnail": "https://cdn-images-1.listennotes.com/podcasts/this-week-in-tech-mp3-twit-FhH4pxNJ7MD-rOsjyMdh_cW.300x300.jpg",
       "listennotes_url": "https://www.listennotes.com/c/33bd629683d6413fae3dcc6d434c63a4/",
       "total_episodes": 192,
       "description": "Your first podcast of the week is the last word in tech. Join the top tech pundits in a roundtable discussion of the latest trends in high tech.\n\nRecords live every Sunday at 5:15pm Eastern / 2:15pm Pacific / 21:15 UTC.",
       "itunes_id": 73329404,
       "rss": "https://feeds.twit.tv/twit.xml",
       "language": "English",
       "country": "United States",
       "website": "https://twit.tv/shows/this-week-in-tech?utm_source=listennotes.com&utm_campaign=Listen+Notes&utm_medium=website",
       "is_claimed": true,
       "type": "episodic",
       "genre_ids": [
         149,
         157,
         127,
         140,
         67,
         93,
         95,
         99,
         130,
         131
       ]
     },
     {
       "id": "64bfb34f7dd243a6a75123ff9158d497",
       "title": "Design Review",
       "publisher": "Design Review",
       "image": "https://cdn-images-1.listennotes.com/podcasts/design-review-design-review-WD4RmBA1os5.300x298.jpg",
       "thumbnail": "https://cdn-images-1.listennotes.com/podcasts/design-review-design-review-WD4RmBA1os5.300x298.jpg",
       "listennotes_url": "https://www.listennotes.com/c/64bfb34f7dd243a6a75123ff9158d497/",
       "total_episodes": 59,
       "description": "No chit-chat, just focused in-depth discussions about design topics that matter. Jonathan Shariat and Chris Liu are your hosts and bring to the table passion and  years of experience.",
       "itunes_id": 947753823,
       "rss": "",
       "language": "English",
       "country": "United States",
       "website": "http://soundcloud.com/design-review?utm_source=listennotes.com&utm_campaign=Listen+Notes&utm_medium=website",
       "is_claimed": false,
       "type": "episodic",
       "genre_ids": [
         140,
         67,
         127,
         131
       ]
     },
     {
       "id": "a5afc614d96048a2ae20bdd6136127b7",
       "title": "The Unofficial Shopify Podcast",
       "publisher": "Kurt Elster, Paul Reda",
       "image": "https://cdn-images-1.listennotes.com/podcasts/the-unofficial-shopify-podcast-kurt-elster-ncGUKkNvVRE-BqzDjoexMh1.300x300.jpg",
       "thumbnail": "https://cdn-images-1.listennotes.com/podcasts/the-unofficial-shopify-podcast-kurt-elster-ncGUKkNvVRE-BqzDjoexMh1.300x300.jpg",
       "listennotes_url": "https://www.listennotes.com/c/a5afc614d96048a2ae20bdd6136127b7/",
       "total_episodes": 299,
       "description": "\u201cHow's an entrepreneur like me supposed to grow my Shopify store?\u201d That's what The Unofficial Shopify Podcast aims to answer. Discover new opportunities to grow your store from the world\u2019s most successful Shopify entrepreneurs. Hosted by Kurt Elster, a senior ecommerce consultant and Shopify Plus Partner, The Unofficial Shopify Podcast is not authorized, endorsed, or sponsored by Shopify\u2013 It's a no holds barred discussion of ecommerce growth strategy & tactics.",
       "itunes_id": 918602360,
       "rss": "https://feeds.simplecast.com/Ewol_LzH",
       "language": "English",
       "country": "United States",
       "website": "https://unofficialshopifypodcast.com?utm_source=listennotes.com&utm_campaign=Listen+Notes&utm_medium=website",
       "is_claimed": false,
       "type": "episodic",
       "genre_ids": [
         140,
         67,
         93,
         96,
         97,
         127,
         128
       ]
     },
     {
       "id": "8c64ce9c1afa49358ca5fb931a5edf22",
       "title": "Design Details",
       "publisher": "Spec",
       "image": "https://cdn-images-1.listennotes.com/podcasts/design-details-spec-LMOK6az7Jcq-R9lQegBoP-y.300x300.jpg",
       "thumbnail": "https://cdn-images-1.listennotes.com/podcasts/design-details-spec-LMOK6az7Jcq-R9lQegBoP-y.300x300.jpg",
       "listennotes_url": "https://www.listennotes.com/c/8c64ce9c1afa49358ca5fb931a5edf22/",
       "total_episodes": 354,
       "description": "A weekly conversation about design process and culture. Hosted by Marshall Bock and Brian Lovin.",
       "itunes_id": 947191070,
       "rss": "",
       "language": "English",
       "country": "United States",
       "website": "https://designdetails.fm?utm_source=listennotes.com&utm_campaign=Listen+Notes&utm_medium=website",
       "is_claimed": false,
       "type": "episodic",
       "genre_ids": [
         140,
         93,
         157,
         97,
         67,
         100,
         105,
         127,
         129
       ]
     },
     {
       "id": "83262c8b71f943d9b8759e0ada6d4e8b",
       "title": "UX Podcast",
       "publisher": "UX Podcast",
       "image": "https://cdn-images-1.listennotes.com/podcasts/ux-podcast-ux-podcast-ltcUrOMgR4x-31WswGXPCSk.300x300.jpg",
       "thumbnail": "https://cdn-images-1.listennotes.com/podcasts/ux-podcast-ux-podcast-ltcUrOMgR4x-31WswGXPCSk.300x300.jpg",
       "listennotes_url": "https://www.listennotes.com/c/83262c8b71f943d9b8759e0ada6d4e8b/",
       "total_episodes": 245,
       "description": "UXPodcast\u2122 is a twice-monthly digital design podcast - hosted by James Royal-Lawson and Per Axbom - sharing insights about business, technology and people since 2011. We want to push the boundaries of how user experience is perceived and boost your confidence in the work you do.",
       "itunes_id": 438896324,
       "rss": "https://anchor.fm/s/2125a62c/podcast/rss",
       "language": "English",
       "country": "United States",
       "website": "https://uxpodcast.com?utm_source=listennotes.com&utm_campaign=Listen+Notes&utm_medium=website",
       "is_claimed": false,
       "type": "episodic",
       "genre_ids": [
         127,
         140,
         67,
         93,
         97,
         100,
         105,
         111,
         112
       ]
     },
     {
       "id": "9006239f782246c5b17c33f5f76933f6",
       "title": "seanwes podcast ",
       "publisher": "Sean McCabe and Ben Toalson",
       "image": "https://cdn-images-1.listennotes.com/podcasts/seanwes-podcast-sean-mccabe-and-ben-toalson-pmTHCb-nJF_.300x300.jpg",
       "thumbnail": "https://cdn-images-1.listennotes.com/podcasts/seanwes-podcast-sean-mccabe-and-ben-toalson-pmTHCb-nJF_.300x300.jpg",
       "listennotes_url": "https://www.listennotes.com/c/9006239f782246c5b17c33f5f76933f6/",
       "total_episodes": 494,
       "description": "Build and grow a sustainable business. From products and marketing to professionalism and clients, you\u2019ll get answers to the hard-hitting questions.  Join entrepreneurs Sean McCabe and Ben Toalson as they let you inside their discussions on the many facets of making a living online. You\u2019ll come away from every episode with something of value that you can apply to your business.",
       "itunes_id": 685421236,
       "rss": "",
       "language": "English",
       "country": "United States",
       "website": "http://seanwes.com/podcast?utm_source=listennotes.com&utm_campaign=Listen+Notes&utm_medium=website",
       "is_claimed": false,
       "type": "episodic",
       "genre_ids": [
         140,
         67,
         93,
         94,
         97,
         100,
         105
       ]
     },
     {
       "id": "a706b0a930b24e269bcf177432ce5ac6",
       "title": "The Changelog: Software Dev & Open Source",
       "publisher": "Changelog Media",
       "image": "https://cdn-images-1.listennotes.com/podcasts/the-changelog-changelog-media-7o41SvyO8z_.300x300.jpg",
       "thumbnail": "https://cdn-images-1.listennotes.com/podcasts/the-changelog-changelog-media-7o41SvyO8z_.300x300.jpg",
       "listennotes_url": "https://www.listennotes.com/c/a706b0a930b24e269bcf177432ce5ac6/",
       "total_episodes": 408,
       "description": "Conversations with the hackers, leaders, and innovators of software development.  Hosts Adam Stacoviak and Jerod Santo face their imposter syndrome so you don\u2019t have to. Expect in-depth interviews with the best and brightest in software engineering, open source, and leadership. This is a polyglot podcast. All programming languages, platforms, and communities are welcome. Open source moves fast. Keep up.",
       "itunes_id": 341623264,
       "rss": "",
       "language": "English",
       "country": "United States",
       "website": "https://changelog.com/podcast?utm_source=listennotes.com&utm_campaign=Listen+Notes&utm_medium=website",
       "is_claimed": true,
       "type": "episodic",
       "genre_ids": [
         127,
         157,
         140,
         67,
         128,
         131,
         143
       ]
     },
     {
       "id": "083e27920aa049c7a4b035f3acb24272",
       "title": "Syntax - Tasty Web Development Treats",
       "publisher": "Wes Bos & Scott Tolinski - Full Stack JavaScript Web Developers",
       "image": "https://cdn-images-1.listennotes.com/podcasts/syntax-tasty-web-development-treats-wes-bos-HBLGrV82oAs.300x300.jpg",
       "thumbnail": "https://cdn-images-1.listennotes.com/podcasts/syntax-tasty-web-development-treats-wes-bos-HBLGrV82oAs.300x300.jpg",
       "listennotes_url": "https://www.listennotes.com/c/083e27920aa049c7a4b035f3acb24272/",
       "total_episodes": 262,
       "description": "Full Stack Developers Wes Bos and Scott Tolinski dive deep into web development topics, explaining how they work and talking about their own experiences. They cover from JavaScript frameworks like React, to the latest advancements in CSS to simplifying web tooling.",
       "itunes_id": 1253186678,
       "rss": "http://feed.syntax.fm/rss",
       "language": "English",
       "country": "United States",
       "website": "https://syntax.fm?utm_source=listennotes.com&utm_campaign=Listen+Notes&utm_medium=website",
       "is_claimed": false,
       "type": "episodic",
       "genre_ids": [
         127,
         140,
         67,
         93,
         94,
         131
       ]
     },
     {
       "id": "a9bd8a40e25e461292ad49a903c58de4",
       "title": "Wireframe",
       "publisher": "Adobe",
       "image": "https://cdn-images-1.listennotes.com/podcasts/wireframe-adobe-Ex8uh7HATgP-oqX5WKphdUj.300x300.jpg",
       "thumbnail": "https://cdn-images-1.listennotes.com/podcasts/wireframe-adobe-Ex8uh7HATgP-oqX5WKphdUj.300x300.jpg",
       "listennotes_url": "https://www.listennotes.com/c/a9bd8a40e25e461292ad49a903c58de4/",
       "total_episodes": 17,
       "description": "Wireframe reveals the stories behind user experience design, for UX/UI designers, graphic designers, and the design-curious. Hosted by Khoi Vinh, principal designer at Adobe and one of Fast Company\u2019s 100 Most Creative People in Business, the podcast explores unexpected ways that user experience design helps technology fit into our lives.",
       "itunes_id": 1437677219,
       "rss": "",
       "language": "English",
       "country": "United States",
       "website": "https://xd.adobe.com/ideas/perspectives/wireframe-podcast/?utm_source=listennotes.com&utm_campaign=Listen+Notes&utm_medium=website",
       "is_claimed": false,
       "type": "episodic",
       "genre_ids": [
         140,
         127,
         122,
         105,
         100,
         67
       ]
     },
     {
       "id": "389c6ccb0e0449b9be5378f18e5bce4e",
       "title": "UIE Book Corner",
       "publisher": "Adam Churchill",
       "image": "https://cdn-images-1.listennotes.com/podcasts/uie-book-corner-adam-churchill-XCsOofQNvDj.300x300.jpg",
       "thumbnail": "https://cdn-images-1.listennotes.com/podcasts/uie-book-corner-adam-churchill-XCsOofQNvDj.300x300.jpg",
       "listennotes_url": "https://www.listennotes.com/c/389c6ccb0e0449b9be5378f18e5bce4e/",
       "total_episodes": 7,
       "description": "Here at UIE we\u2019ve amassed quite a library, and we\u2019re adding to it all the time. Adam Churchill took the opportunity to interview a few of our favorite authors to dig a little deeper into the tools and techniques you can use in your day-to-day work.",
       "itunes_id": 1228221152,
       "rss": "",
       "language": "English",
       "country": "United States",
       "website": "https://uie.fm/shows/uie-book-corner?utm_source=listennotes.com&utm_campaign=Listen+Notes&utm_medium=website",
       "is_claimed": false,
       "type": "episodic",
       "genre_ids": [
         140,
         67,
         93,
         97,
         100,
         105,
         127
       ]
     },
     {
       "id": "57375bbc28cc42dfba375e1f9420add8",
       "title": "The Web Ahead",
       "publisher": "5by5",
       "image": "https://cdn-images-1.listennotes.com/podcasts/the-web-ahead-5by5-pY1MkjX_vrh.300x300.jpg",
       "thumbnail": "https://cdn-images-1.listennotes.com/podcasts/the-web-ahead-5by5-pY1MkjX_vrh.300x300.jpg",
       "listennotes_url": "https://www.listennotes.com/c/57375bbc28cc42dfba375e1f9420add8/",
       "total_episodes": 117,
       "description": "Conversations with world experts on changing technologies and future of the web. The Web Ahead is your shortcut to keeping up. Hosted by Jen Simmons.",
       "itunes_id": 464936442,
       "rss": "",
       "language": "English",
       "country": "United States",
       "website": "http://5by5.tv/webahead?utm_source=listennotes.com&utm_campaign=Listen+Notes&utm_medium=website",
       "is_claimed": false,
       "type": "episodic",
       "genre_ids": [
         140,
         67,
         127,
         128
       ]
     },
     {
       "id": "9be0417a61ce4323a65a6785676f67b3",
       "title": "O'Reilly Design Podcast - O'Reilly Media Podcast",
       "publisher": "O'Reilly Media",
       "image": "https://cdn-images-1.listennotes.com/podcasts/oreilly-design-podcast-oreilly-media-4zZB732enIt-S9Qv-0HNrFm.300x300.jpg",
       "thumbnail": "https://cdn-images-1.listennotes.com/podcasts/oreilly-design-podcast-oreilly-media-4zZB732enIt-S9Qv-0HNrFm.300x300.jpg",
       "listennotes_url": "https://www.listennotes.com/c/9be0417a61ce4323a65a6785676f67b3/",
       "total_episodes": 50,
       "description": "Experience design insight and analysis.",
       "itunes_id": 1022433707,
       "rss": "https://cdn.oreillystatic.com/radar/oreilly-design-podcast/feed.rss",
       "language": "English",
       "country": "United States",
       "website": "https://www.oreilly.com?utm_source=listennotes.com&utm_campaign=Listen+Notes&utm_medium=website",
       "is_claimed": false,
       "type": "episodic",
       "genre_ids": [
         140,
         67,
         93,
         127,
         131,
         105
       ]
     },
     {
       "id": "bebf78deac8f4909a65dfd25daad989d",
       "title": "UXpod - User Experience Podcast",
       "publisher": "Gerry Gaffney",
       "image": "https://cdn-images-1.listennotes.com/podcasts/uxpod-user-experience-podcast-gerry-gaffney-kcwnJu0ghAO.300x300.jpg",
       "thumbnail": "https://cdn-images-1.listennotes.com/podcasts/uxpod-user-experience-podcast-gerry-gaffney-kcwnJu0ghAO.300x300.jpg",
       "listennotes_url": "https://www.listennotes.com/c/bebf78deac8f4909a65dfd25daad989d/",
       "total_episodes": 114,
       "description": "A free-ranging set of discussions on matters of interest to people involved in user experience design, website design, and usability in general.",
       "itunes_id": 163924332,
       "rss": "https://uxpod.libsyn.com/rss",
       "language": "English",
       "country": "United States",
       "website": "http://www.uxpod.com?utm_source=listennotes.com&utm_campaign=Listen+Notes&utm_medium=website",
       "is_claimed": false,
       "type": "episodic",
       "genre_ids": [
         140,
         67,
         127,
         128,
         105
       ]
     },
     {
       "id": "60d9c48eba804965814cc466b6d224b7",
       "title": "UI Breakfast: UI/UX Design and Product Strategy",
       "publisher": "Jane Portman",
       "image": "https://cdn-images-1.listennotes.com/podcasts/ui-breakfast-uiux-design-and-product-kCAtL2pBY8E-v8FO4AaYQGC.300x300.jpg",
       "thumbnail": "https://cdn-images-1.listennotes.com/podcasts/ui-breakfast-uiux-design-and-product-kCAtL2pBY8E-v8FO4AaYQGC.300x300.jpg",
       "listennotes_url": "https://www.listennotes.com/c/60d9c48eba804965814cc466b6d224b7/",
       "total_episodes": 177,
       "description": "Join us for exciting conversations about UI/UX design, SaaS products, marketing, and so much more. My awesome guests are industry experts who share actionable knowledge \u2014 so that you can apply it in your business today.",
       "itunes_id": 939175693,
       "rss": "https://uibreakfast.com/category/podcasting/feed/",
       "language": "English",
       "country": "United States",
       "website": "http://www.uibreakfast.com/podcast?utm_source=listennotes.com&utm_campaign=Listen+Notes&utm_medium=website",
       "is_claimed": false,
       "type": "episodic",
       "genre_ids": [
         140,
         67,
         93,
         100,
         105,
         127
       ]
     },
     {
       "id": "6ff6656705c04e0f94166e2c086c21ec",
       "title": "The UX Blog: User Experience Design, Research & Strategy",
       "publisher": "Interviews with User Experience (UX) professionals hosted by Nicholas Tenhu",
       "image": "https://cdn-images-1.listennotes.com/podcasts/the-ux-blog-user-experience-design-research-gK-Ux0lNRt_-_L94aHGxiMc.300x300.jpg",
       "thumbnail": "https://cdn-images-1.listennotes.com/podcasts/the-ux-blog-user-experience-design-research-gK-Ux0lNRt_-_L94aHGxiMc.300x300.jpg",
       "listennotes_url": "https://www.listennotes.com/c/6ff6656705c04e0f94166e2c086c21ec/",
       "total_episodes": 18,
       "description": "Every week on The UX Blog Podcast, Nicholas Tenhue interviews user experience professionals about current trends, hot topics, and their careers. Learn about user-centered design, information architecture, user research, UX strategy, and interaction design. Nicholas interviews UXers at different stages in their career, from interns to executives. Find out more: www.theuxblog.com",
       "itunes_id": 1127946001,
       "rss": "",
       "language": "English",
       "country": "United States",
       "website": "http://theuxblog.com?utm_source=listennotes.com&utm_campaign=Listen+Notes&utm_medium=website",
       "is_claimed": false,
       "type": "episodic",
       "genre_ids": [
         140,
         67,
         93,
         94,
         100,
         105,
         127,
         129
       ]
     }
   ],
   "total": 45,
   "has_next": true,
   "has_previous": false,
   "page_number": 1,
   "previous_page_number": 0,
   "next_page_number": 2,
   "listennotes_url": "https://www.listennotes.com/best-web-design-podcasts-140/"
 }